<?xml version="1.0" encoding="UTF-8" standalone="no"?>
<svg
   xmlns:dc="http://purl.org/dc/elements/1.1/"
   xmlns:cc="http://creativecommons.org/ns#"
   xmlns:rdf="http://www.w3.org/1999/02/22-rdf-syntax-ns#"
   xmlns:svg="http://www.w3.org/2000/svg"
   xmlns="http://www.w3.org/2000/svg"
   xmlns:sodipodi="http://sodipodi.sourceforge.net/DTD/sodipodi-0.dtd"
   xmlns:inkscape="http://www.inkscape.org/namespaces/inkscape"
   id="svg0"
   version="1.1"
   viewBox="0 0 140 140"
   height="140mm"
   width="140mm">
  <defs
     id="defs2">
     <style id="style1">
// Not in a CDATA for testing.
#layer1 {
   stroke: yellow;
}
#rect1 {
   fill: blue;
}
.two {
   fill: green;
}
#rect3.three {
   fill: cyan;
}
#layer1 .four {
   fill: grey;
}
circle {
   fill: red;
}
     </style>
     <style id="style2"></style>
     <style id="style3"><![CDATA[
#layer1 {
    stroke-width: 2px;
}
     ]]></style>
  </defs>
  <g
     id="layer1"
     inkscape:groupmode="layer"
     inkscape:label="Layer 1">
    <rect
       y="0"
       x="0"
       class="one"
       height="70"
       width="70"
       id="rect1"/>
    <rect
       id="rect2"
       class="two"
       width="70"
       height="70"
       x="70"
       y="0" />
    <rect
       y="70"
       x="0"
       class="three"
       height="70"
       width="70"
       id="rect3"/>
    <rect
       id="rect4"
       class="four"
       width="70"
       height="70"
       style="stroke: red;"
       x="70"
       y="70" />
    <circle
       r="35"
       cy="70"
       cx="70"
       id="circle1"/>
  </g>
</svg>
